ToyDataset2/tek ch2 volts tbx 6 nonjmp.csv

Model,MSO54
Waveform Type,ANALOG
Horizontal Units,s
Sample Interval,1.600000e-07
Record Length,81250
Zero Index,5745.281986
Vertical Units,V

TIME,CH2
-9.192451e-04,2.151875e+02
-9.190851e-04,2.154375e+02
-9.189251e-04,2.146875e+02
-9.187651e-04,2.165625e+02
-9.186051e-04,2.189375e+02
-9.184451e-04,2.136875e+02
-9.182851e-04,2.154375e+02
-9.181251e-04,2.154375e+02
-9.179651e-04,2.144375e+02
-9.178051e-04,2.158125e+02
-9.176451e-04,2.172813e+02
-9.174851e-04,2.151875e+02
-9.173251e-04,2.133125e+02
-9.171651e-04,2.160625e+02
-9.170051e-04,2.159375e+02
-9.168451e-04,2.141875e+02
-9.166851e-04,2.151875e+02
-9.165251e-04,2.164375e+02
-9.163651e-04,2.168125e+02
-9.162051e-04,2.186875e+02
-9.160451e-04,2.149375e+02
-9.158851e-04,2.161250e+02
-9.157251e-04,2.148125e+02
-9.155651e-04,2.159375e+02
-9.154051e-04,2.165625e+02
-9.152451e-04,2.159375e+02
-9.150851e-04,2.187188e+02
-9.149251e-04,2.128125e+02
-9.147651e-04,2.131875e+02
-9.146051e-04,2.150625e+02
-9.144451e-04,2.150625e+02
-9.142851e-04,2.148125e+02
-9.141251e-04,2.134375e+02
-9.139651e-04,2.158125e+02
-9.138051e-04,2.164375e+02
-9.136451e-04,2.150625e+02
-9.134851e-04,2.160625e+02
-9.133251e-04,2.153125e+02
-9.131651e-04,2.150625e+02
-9.130051e-04,2.148125e+02
-9.128451e-04,2.138125e+02
-9.126851e-04,2.141875e+02
-9.125251e-04,2.186250e+02
-9.123651e-04,2.140625e+02
-9.122051e-04,2.128125e+02
-9.120451e-04,2.140625e+02
-9.118851e-04,2.163125e+02
-9.117251e-04,2.153125e+02
-9.115651e-04,2.145625e+02
-9.114051e-04,2.140625e+02
-9.112451e-04,2.158125e+02
-9.110851e-04,2.179063e+02
-9.109251e-04,2.190625e+02
-9.107651e-04,2.143125e+02
-9.106051e-04,2.158125e+02
-9.104451e-04,2.161875e+02
-9.102851e-04,2.154375e+02
-9.101251e-04,2.155625e+02
-9.099651e-04,2.153125e+02
-9.098051e-04,2.158125e+02
-9.096451e-04,2.149375e+02
-9.094851e-04,2.165000e+02
-9.093251e-04,2.160625e+02
-9.091651e-04,2.151875e+02
-9.090051e-04,2.172188e+02
-9.088451e-04,2.146875e+02
-9.086851e-04,2.133125e+02
-9.085251e-04,2.161875e+02
-9.083651e-04,2.124375e+02
-9.082051e-04,2.145625e+02
-9.080451e-04,2.144375e+02
-9.078851e-04,2.146875e+02
-9.077251e-04,2.176563e+02
-9.075651e-04,2.149375e+02
-9.074051e-04,2.134375e+02
-9.072451e-04,2.151875e+02
-9.070851e-04,2.159375e+02
-9.069251e-04,2.160625e+02
-9.067651e-04,2.163750e+02
-9.066051e-04,2.155625e+02
-9.064451e-04,2.135625e+02
-9.062851e-04,2.158125e+02
-9.061251e-04,2.154375e+02
-9.059651e-04,2.146875e+02
-9.058051e-04,2.146875e+02
-9.056451e-04,2.158125e+02
-9.054851e-04,2.153125e+02
-9.053251e-04,2.148125e+02
-9.051651e-04,2.170313e+02
-9.050051e-04,2.153125e+02
-9.048451e-04,2.154375e+02
-9.046851e-04,2.148125e+02
-9.045251e-04,2.146875e+02
-9.043651e-04,2.161875e+02
-9.042051e-04,2.143125e+02
-9.040451e-04,2.161875e+02
-9.038851e-04,2.159375e+02
-9.037251e-04,2.149375e+02
-9.035651e-04,2.164375e+02
-9.034051e-04,2.151875e+02
-9.032451e-04,2.149375e+02
-9.030851e-04,2.180313e+02
-9.029251e-04,2.175313e+02
-9.027651e-04,2.158125e+02
-9.026051e-04,2.163125e+02
-9.024451e-04,2.135625e+02
-9.022851e-04,2.153125e+02
-9.021251e-04,2.151875e+02
-9.019651e-04,2.148125e+02
-9.018051e-04,2.173438e+02
-9.016451e-04,2.169375e+02
-9.014851e-04,2.159375e+02
-9.013251e-04,2.158125e+02
-9.011651e-04,2.160625e+02
-9.010051e-04,2.168750e+02
-9.008451e-04,2.153125e+02
-9.006851e-04,2.160625e+02
-9.005251e-04,2.130000e+02
-9.003651e-04,2.143125e+02
-9.002051e-04,2.150625e+02
-9.000451e-04,2.138125e+02
-8.998851e-04,2.143125e+02
-8.997251e-04,2.134375e+02
-8.995651e-04,2.150625e+02
-8.994051e-04,2.155625e+02
-8.992451e-04,2.138125e+02
-8.990851e-04,2.153125e+02
-8.989251e-04,2.144375e+02
-8.987651e-04,2.141875e+02
-8.986051e-04,2.170000e+02
-8.984451e-04,2.146250e+02
-8.982851e-04,2.151875e+02
-8.981251e-04,2.144375e+02
-8.979651e-04,2.165625e+02
-8.978051e-04,2.148125e+02
-8.976451e-04,2.143125e+02
-8.974851e-04,2.139375e+02
-8.973251e-04,2.136875e+02
-8.971651e-04,2.175313e+02
-8.970051e-04,2.153125e+02
-8.968451e-04,2.164375e+02
-8.966851e-04,2.138125e+02
-8.965251e-04,2.177813e+02
-8.963651e-04,2.154375e+02
-8.962051e-04,2.158125e+02
-8.960451e-04,2.156875e+02
-8.958851e-04,2.146875e+02
-8.957251e-04,2.181875e+02
-8.955651e-04,2.139375e+02
-8.954051e-04,2.170625e+02
-8.952451e-04,2.139375e+02
-8.950851e-04,2.164375e+02
-8.949251e-04,2.145625e+02
-8.947651e-04,2.150625e+02
-8.946051e-04,2.182813e+02
-8.944451e-04,2.160625e+02
-8.942851e-04,2.139375e+02
-8.941251e-04,2.168125e+02
-8.939651e-04,2.134375e+02
-8.938051e-04,2.148125e+02
-8.936451e-04,2.141875e+02
-8.934851e-04,2.159375e+02
-8.933251e-04,2.177813e+02
-8.931651e-04,2.124375e+02
-8.930051e-04,2.149375e+02
-8.928451e-04,2.148125e+02
-8.926851e-04,2.163125e+02
-8.925251e-04,2.176563e+02
-8.923651e-04,2.169375e+02
-8.922051e-04,2.144375e+02
-8.920451e-04,2.155625e+02
-8.918851e-04,2.161250e+02
-8.917251e-04,2.160625e+02
-8.915651e-04,2.166875e+02
-8.914051e-04,2.160625e+02
-8.912451e-04,2.154375e+02
-8.910851e-04,2.156875e+02
-8.909251e-04,2.164375e+02
-8.907651e-04,2.156875e+02
-8.906051e-04,2.184688e+02
-8.904451e-04,2.126875e+02
-8.902851e-04,2.145000e+02
-8.901251e-04,2.158125e+02
-8.899651e-04,2.141875e+02
-8.898051e-04,2.128125e+02
-8.896451e-04,2.158438e+02
-8.894851e-04,2.163125e+02
-8.893251e-04,2.168125e+02
-8.891651e-04,2.123125e+02
-8.890051e-04,2.130625e+02
-8.888451e-04,2.161875e+02
-8.886851e-04,2.141875e+02
-8.885251e-04,2.148125e+02
-8.883651e-04,2.176563e+02
-8.882051e-04,2.140625e+02
-8.880451e-04,2.160938e+02
-8.878851e-04,2.160625e+02
-8.877251e-04,2.139375e+02
-8.875651e-04,2.168125e+02
-8.874051e-04,2.158125e+02
-8.872451e-04,2.161875e+02
-8.870851e-04,2.141875e+02
-8.869251e-04,2.168750e+02
-8.867651e-04,2.154375e+02
-8.866051e-04,2.148125e+02
-8.864451e-04,2.158125e+02
-8.862851e-04,2.160625e+02
-8.861251e-04,2.138125e+02
-8.859651e-04,2.156875e+02
-8.858051e-04,2.159375e+02
-8.856451e-04,2.146875e+02
-8.854851e-04,2.159375e+02
-8.853251e-04,2.144375e+02
-8.851651e-04,2.163125e+02
-8.850051e-04,2.179063e+02
-8.848451e-04,2.161875e+02
-8.846851e-04,2.150625e+02
-8.845251e-04,2.154375e+02
-8.843651e-04,2.158125e+02
-8.842051e-04,2.176563e+02
-8.840451e-04,2.156875e+02
-8.838851e-04,2.126875e+02
-8.837251e-04,2.149375e+02
-8.835651e-04,2.144375e+02
-8.834051e-04,2.160625e+02
-8.832451e-04,2.144375e+02
-8.830851e-04,2.143125e+02
-8.829251e-04,2.159375e+02
-8.827651e-04,2.169375e+02
-8.826051e-04,2.135625e+02
-8.824451e-04,2.165625e+02
-8.822851e-04,2.165313e+02
-8.821251e-04,2.145625e+02
-8.819651e-04,2.143125e+02
-8.818051e-04,2.151875e+02
-8.816451e-04,2.146875e+02
-8.814851e-04,2.150625e+02
-8.813251e-04,2.145625e+02
-8.811651e-04,2.153125e+02
-8.810051e-04,2.155625e+02
-8.808451e-04,2.154375e+02
-8.806851e-04,2.166875e+02
-8.805251e-04,2.150625e+02
-8.803651e-04,2.159375e+02
-8.802051e-04,2.135625e+02
-8.800451e-04,2.154375e+02
-8.798851e-04,2.153125e+02
-8.797251e-04,2.158125e+02
-8.795651e-04,2.135625e+02
-8.794051e-04,2.137500e+02
-8.792451e-04,2.143125e+02
-8.790851e-04,2.150625e+02
-8.789251e-04,2.169375e+02
-8.787651e-04,2.175313e+02
-8.786051e-04,2.175313e+02
-8.784451e-04,2.150625e+02
-8.782851e-04,2.156875e+02
-8.781251e-04,2.168438e+02
-8.779651e-04,2.160625e+02
-8.778051e-04,2.156875e+02
-8.776451e-04,2.144375e+02
-8.774851e-04,2.143125e+02
-8.773251e-04,2.158438e+02
-8.771651e-04,2.153125e+02
-8.770051e-04,2.159375e+02
-8.768451e-04,2.160625e+02
-8.766851e-04,2.179688e+02
-8.765251e-04,2.140625e+02
-8.763651e-04,2.154375e+02
-8.762051e-04,2.144375e+02
-8.760451e-04,2.169375e+02
-8.758851e-04,2.171563e+02
-8.757251e-04,2.156875e+02
-8.755651e-04,2.165938e+02
-8.754051e-04,2.171563e+02
-8.752451e-04,2.154375e+02
-8.750851e-04,2.164375e+02
-8.749251e-04,2.163438e+02
-8.747651e-04,2.153125e+02
-8.746051e-04,2.155625e+02
-8.744451e-04,2.160625e+02
-8.742851e-04,2.135625e+02
-8.741251e-04,2.163125e+02
-8.739651e-04,2.143125e+02
-8.738051e-04,2.160625e+02
-8.736451e-04,2.148125e+02
-8.734851e-04,2.151875e+02
-8.733251e-04,2.149375e+02
-8.731651e-04,2.174063e+02
-8.730051e-04,2.144375e+02
-8.728451e-04,2.123125e+02
-8.726851e-04,2.159375e+02
-8.725251e-04,2.170000e+02
-8.723651e-04,2.171563e+02
-8.722051e-04,2.129375e+02
-8.720451e-04,2.151875e+02
-8.718851e-04,2.168125e+02
-8.717251e-04,2.154375e+02
-8.715651e-04,2.144375e+02
-8.714051e-04,2.160625e+02
-8.712451e-04,2.138125e+02
-8.710851e-04,2.158125e+02
-8.709251e-04,2.149375e+02
-8.707651e-04,2.172813e+02
-8.706051e-04,2.172813e+02
-8.704451e-04,2.138125e+02
-8.702851e-04,2.155625e+02
-8.701251e-04,2.156875e+02
-8.699651e-04,2.133125e+02
-8.698051e-04,2.155625e+02
-8.696451e-04,2.171563e+02
-8.694851e-04,2.140625e+02
-8.693251e-04,2.163125e+02
-8.691651e-04,2.150000e+02
-8.690051e-04,2.158125e+02
-8.688451e-04,2.144375e+02
-8.686851e-04,2.141875e+02
-8.685251e-04,2.175625e+02
-8.683651e-04,2.140625e+02
-8.682051e-04,2.144375e+02
-8.680451e-04,2.150625e+02
-8.678851e-04,2.135625e+02
-8.677251e-04,2.158125e+02
-8.675651e-04,2.135625e+02
-8.674051e-04,2.153125e+02
-8.672451e-04,2.169375e+02
-8.670851e-04,2.156875e+02
-8.669251e-04,2.149375e+02
-8.667651e-04,2.163125e+02
-8.666051e-04,2.177188e+02
-8.664451e-04,2.151875e+02
-8.662851e-04,2.160625e+02
-8.661251e-04,2.131875e+02
-8.659651e-04,2.175313e+02
-8.658051e-04,2.153125e+02
-8.656451e-04,2.153125e+02
-8.654851e-04,2.161875e+02
-8.653251e-04,2.151875e+02
-8.651651e-04,2.161875e+02
-8.650051e-04,2.150625e+02
-8.648451e-04,2.153125e+02
-8.646851e-04,2.130625e+02
-8.645251e-04,2.149375e+02
-8.643651e-04,2.160625e+02
-8.642051e-04,2.148125e+02
-8.640451e-04,2.141875e+02
-8.638851e-04,2.149375e+02
-8.637251e-04,2.160625e+02
-8.635651e-04,2.151875e+02
-8.634051e-04,2.148125e+02
-8.632451e-04,2.166875e+02
-8.630851e-04,2.165625e+02
-8.629251e-04,2.161875e+02
-8.627651e-04,2.150625e+02
-8.626051e-04,2.154375e+02
-8.624451e-04,2.153125e+02
-8.622851e-04,2.146875e+02
-8.621251e-04,2.166250e+02
-8.619651e-04,2.155625e+02
-8.618051e-04,2.151875e+02
-8.616451e-04,2.155625e+02
-8.614851e-04,2.159375e+02
-8.613251e-04,2.169375e+02
-8.611651e-04,2.163125e+02
-8.610051e-04,2.143125e+02
-8.608451e-04,2.165625e+02
-8.606851e-04,2.158125e+02
-8.605251e-04,2.164375e+02
-8.603651e-04,2.144375e+02
-8.602051e-04,2.141875e+02
-8.600451e-04,2.156875e+02
-8.598851e-04,2.138125e+02
-8.597251e-04,2.149375e+02
-8.595651e-04,2.171563e+02
-8.594051e-04,2.153125e+02
-8.592451e-04,2.146875e+02
-8.590851e-04,2.146875e+02
-8.589251e-04,2.125625e+02
-8.587651e-04,2.174375e+02
-8.586051e-04,2.141875e+02
-8.584451e-04,2.164375e+02
-8.582851e-04,2.172813e+02
-8.581251e-04,2.135625e+02
-8.579651e-04,2.160625e+02
-8.578051e-04,2.165625e+02
-8.576451e-04,2.158125e+02
-8.574851e-04,2.159375e+02
-8.573251e-04,2.140625e+02
-8.571651e-04,2.161875e+02
-8.570051e-04,2.134375e+02
-8.568451e-04,2.161875e+02
-8.566851e-04,2.153125e+02
-8.565251e-04,2.155625e+02
-8.563651e-04,2.149375e+02
-8.562051e-04,2.158125e+02
-8.560451e-04,2.179063e+02
-8.558851e-04,2.141875e+02
-8.557251e-04,2.154375e+02
-8.555651e-04,2.156875e+02
-8.554051e-04,2.143125e+02
-8.552451e-04,2.129375e+02
-8.550851e-04,2.148125e+02
-8.549251e-04,2.140625e+02
-8.547651e-04,2.169375e+02
-8.546051e-04,2.159375e+02
-8.544451e-04,2.148125e+02
-8.542851e-04,2.136875e+02
-8.541251e-04,2.159375e+02
-8.539651e-04,2.143125e+02
-8.538051e-04,2.164375e+02
-8.536451e-04,2.170313e+02
-8.534851e-04,2.156875e+02
-8.533251e-04,2.161875e+02
-8.531651e-04,2.150625e+02
-8.530051e-04,2.149375e+02
-8.528451e-04,2.161875e+02
-8.526851e-04,2.145625e+02
-8.525251e-04,2.141875e+02
-8.523651e-04,2.151875e+02
-8.522051e-04,2.166875e+02
-8.520451e-04,2.139375e+02
-8.518851e-04,2.154375e+02
-8.517251e-04,2.165938e+02
-8.515651e-04,2.160625e+02
-8.514051e-04,2.177813e+02
-8.512451e-04,2.140625e+02
-8.510851e-04,2.145625e+02
-8.509251e-04,2.145625e+02
-8.507651e-04,2.170313e+02
-8.506051e-04,2.144375e+02
-8.504451e-04,2.153125e+02
-8.502851e-04,2.172813e+02
-8.501251e-04,2.160625e+02
-8.499651e-04,2.139375e+02
-8.498051e-04,2.166875e+02
-8.496451e-04,2.170313e+02
-8.494851e-04,2.146875e+02
-8.493251e-04,2.165625e+02
-8.491651e-04,2.144375e+02
-8.490051e-04,2.169375e+02
-8.488451e-04,2.165625e+02
-8.486851e-04,2.164375e+02
-8.485251e-04,2.173125e+02
-8.483651e-04,2.120625e+02
-8.482051e-04,2.156875e+02
-8.480451e-04,2.145625e+02
-8.478851e-04,2.181875e+02
-8.477251e-04,2.150625e+02
-8.475651e-04,2.154375e+02
-8.474051e-04,2.158125e+02
-8.472451e-04,2.151875e+02
-8.470851e-04,2.148125e+02
-8.469251e-04,2.146875e+02
-8.467651e-04,2.151875e+02
-8.466051e-04,2.161875e+02
-8.464451e-04,2.140625e+02
-8.462851e-04,2.154375e+02
-8.461251e-04,2.153125e+02
-8.459651e-04,2.168125e+02
-8.458051e-04,2.155625e+02
-8.456451e-04,2.149375e+02
-8.454851e-04,2.156875e+02
-8.453251e-04,2.161875e+02
-8.451651e-04,2.155625e+02
-8.450051e-04,2.161875e+02
-8.448451e-04,2.150625e+02
-8.446851e-04,2.150625e+02
-8.445251e-04,2.136875e+02
-8.443651e-04,2.163125e+02
-8.442051e-04,2.138750e+02
-8.440451e-04,2.160625e+02
-8.438851e-04,2.165625e+02
-8.437251e-04,2.172813e+02
-8.435651e-04,2.177813e+02
-8.434051e-04,2.149375e+02
-8.432451e-04,2.167500e+02
-8.430851e-04,2.151875e+02
-8.429251e-04,2.153125e+02
-8.427651e-04,2.135625e+02
-8.426051e-04,2.134375e+02
-8.424451e-04,2.155625e+02
-8.422851e-04,2.144375e+02
-8.421251e-04,2.166875e+02
-8.419651e-04,2.163125e+02
-8.418051e-04,2.153125e+02
-8.416451e-04,2.145625e+02
-8.414851e-04,2.151875e+02
-8.413251e-04,2.136875e+02
-8.411651e-04,2.144375e+02
-8.410051e-04,2.161875e+02
-8.408451e-04,2.164375e+02
-8.406851e-04,2.158125e+02
-8.405251e-04,2.143125e+02
-8.403651e-04,2.146875e+02
-8.402051e-04,2.163125e+02
-8.400451e-04,2.165000e+02
-8.398851e-04,2.148125e+02
-8.397251e-04,2.164375e+02
-8.395651e-04,2.150625e+02
-8.394051e-04,2.160625e+02
-8.392451e-04,2.148125e+02
-8.390851e-04,2.159375e+02
-8.389251e-04,2.131875e+02
-8.387651e-04,2.161875e+02
-8.386051e-04,2.155625e+02
-8.384451e-04,2.153125e+02
-8.382851e-04,2.148125e+02
-8.381251e-04,2.149375e+02
-8.379651e-04,2.163125e+02
-8.378051e-04,2.183125e+02
-8.376451e-04,2.148125e+02
-8.374851e-04,2.144375e+02
-8.373251e-04,2.143125e+02
-8.371651e-04,2.143125e+02
-8.370051e-04,2.136875e+02
-8.368451e-04,2.149375e+02
-8.366851e-04,2.156875e+02
-8.365251e-04,2.141875e+02
-8.363651e-04,2.166875e+02
-8.362051e-04,2.169688e+02
-8.360451e-04,2.160625e+02
-8.358851e-04,2.145625e+02
-8.357251e-04,2.151875e+02
-8.355651e-04,2.165625e+02
-8.354051e-04,2.160625e+02
-8.352451e-04,2.163125e+02
-8.350851e-04,2.146875e+02
-8.349251e-04,2.159375e+02
-8.347651e-04,2.159375e+02
-8.346051e-04,2.153125e+02
-8.344451e-04,2.144375e+02
-8.342851e-04,2.145625e+02
-8.341251e-04,2.150625e+02
-8.339651e-04,2.159375e+02
-8.338051e-04,2.174063e+02
-8.336451e-04,2.144375e+02
-8.334851e-04,2.158125e+02
-8.333251e-04,2.125625e+02
-8.331651e-04,2.181563e+02
-8.330051e-04,2.145625e+02
-8.328451e-04,2.129375e+02
-8.326851e-04,2.153125e+02
-8.325251e-04,2.144375e+02
-8.323651e-04,2.170313e+02
-8.322051e-04,2.140625e+02
-8.320451e-04,2.146875e+02
-8.318851e-04,2.145625e+02
-8.317251e-04,2.187188e+02
-8.315651e-04,2.163125e+02
-8.314051e-04,2.160625e+02
-8.312451e-04,2.160625e+02
-8.310851e-04,2.168125e+02
-8.309251e-04,2.151875e+02
-8.307651e-04,2.156875e+02
-8.306051e-04,2.163125e+02
-8.304451e-04,2.149375e+02
-8.302851e-04,2.143125e+02
-8.301251e-04,2.159375e+02
-8.299651e-04,2.154375e+02
-8.298051e-04,2.144375e+02
-8.296451e-04,2.140625e+02
-8.294851e-04,2.144375e+02
-8.293251e-04,2.141875e+02
-8.291651e-04,2.164375e+02
-8.290051e-04,2.146875e+02
-8.288451e-04,2.131875e+02
-8.286851e-04,2.165625e+02
-8.285251e-04,2.165625e+02
-8.283651e-04,2.168125e+02
-8.282051e-04,2.153125e+02
-8.280451e-04,2.175938e+02
-8.278851e-04,2.170313e+02
-8.277251e-04,2.148125e+02
-8.275651e-04,2.164375e+02
-8.274051e-04,2.155625e+02
-8.272451e-04,2.171875e+02
-8.270851e-04,2.136875e+02
-8.269251e-04,2.148125e+02
-8.267651e-04,2.153125e+02
-8.266051e-04,2.161875e+02
-8.264451e-04,2.139375e+02
-8.262851e-04,2.149375e+02
-8.261251e-04,2.160625e+02
-8.259651e-04,2.141875e+02
-8.258051e-04,2.165625e+02
-8.256451e-04,2.153125e+02
-8.254851e-04,2.141875e+02
-8.253251e-04,2.143125e+02
-8.251651e-04,2.166875e+02
-8.250051e-04,2.139375e+02
-8.248451e-04,2.156875e+02
-8.246851e-04,2.141875e+02
-8.245251e-04,2.149375e+02
-8.243651e-04,2.150625e+02
-8.242051e-04,2.165625e+02
-8.240451e-04,2.172813e+02
-8.238851e-04,2.143125e+02
-8.237251e-04,2.130625e+02
-8.235651e-04,2.160938e+02
-8.234051e-04,2.145625e+02
-8.232451e-04,2.159375e+02
-8.230851e-04,2.132188e+02
-8.229251e-04,2.134375e+02
-8.227651e-04,2.158125e+02
-8.226051e-04,2.139375e+02
-8.224451e-04,2.129375e+02
-8.222851e-04,2.135625e+02
-8.221251e-04,2.153125e+02
-8.219651e-04,2.154375e+02
-8.218051e-04,2.151875e+02
-8.216451e-04,2.155625e+02
-8.214851e-04,2.151875e+02
-8.213251e-04,2.144375e+02
-8.211651e-04,2.126875e+02
-8.210051e-04,2.178438e+02
-8.208451e-04,2.154375e+02
-8.206851e-04,2.175313e+02
-8.205251e-04,2.158125e+02
-8.203651e-04,2.158125e+02
-8.202051e-04,2.159375e+02
-8.200451e-04,2.131875e+02
-8.198851e-04,2.158125e+02
-8.197251e-04,2.166875e+02
-8.195651e-04,2.130625e+02
-8.194051e-04,2.150625e+02
-8.192451e-04,2.160000e+02
-8.190851e-04,2.134375e+02
-8.189251e-04,2.165625e+02
-8.187651e-04,2.161875e+02
-8.186051e-04,2.143125e+02
-8.184451e-04,2.140625e+02
-8.182851e-04,2.151875e+02
-8.181251e-04,2.149375e+02
-8.179651e-04,2.128125e+02
-8.178051e-04,2.148125e+02
-8.176451e-04,2.143125e+02
-8.174851e-04,2.169375e+02
-8.173251e-04,2.146875e+02
-8.171651e-04,2.158125e+02
-8.170051e-04,2.136875e+02
-8.168451e-04,2.163125e+02
-8.166851e-04,2.161875e+02
-8.165251e-04,2.150625e+02
-8.163651e-04,2.166875e+02
-8.162051e-04,2.146875e+02
-8.160451e-04,2.149375e+02
-8.158851e-04,2.163125e+02
-8.157251e-04,2.149375e+02
-8.155651e-04,2.136875e+02
-8.154051e-04,2.159375e+02
-8.152451e-04,2.172813e+02
-8.150851e-04,2.158125e+02
-8.149251e-04,2.161875e+02
-8.147651e-04,2.163125e+02
-8.146051e-04,2.140625e+02
-8.144451e-04,2.153125e+02
-8.142851e-04,2.131875e+02
-8.141251e-04,2.175313e+02
-8.139651e-04,2.149375e+02
-8.138051e-04,2.143125e+02
-8.136451e-04,2.153125e+02
-8.134851e-04,2.156875e+02
-8.133251e-04,2.156875e+02
-8.131651e-04,2.144375e+02
-8.130051e-04,2.165625e+02
-8.128451e-04,2.145625e+02
-8.126851e-04,2.154375e+02
-8.125251e-04,2.151875e+02
-8.123651e-04,2.170313e+02
-8.122051e-04,2.153125e+02
-8.120451e-04,2.180625e+02
-8.118851e-04,2.151875e+02
-8.117251e-04,2.165625e+02
-8.115651e-04,2.151875e+02
-8.114051e-04,2.153125e+02
-8.112451e-04,2.165625e+02
-8.110851e-04,2.163125e+02
-8.109251e-04,2.158125e+02
-8.107651e-04,2.169375e+02
-8.106051e-04,2.126875e+02
-8.104451e-04,2.143125e+02
-8.102851e-04,2.170313e+02
-8.101251e-04,2.161250e+02
-8.099651e-04,2.168125e+02
-8.098051e-04,2.153125e+02
-8.096451e-04,2.155625e+02
-8.094851e-04,2.163125e+02
-8.093251e-04,2.164375e+02
-8.091651e-04,2.136875e+02
-8.090051e-04,2.161875e+02
-8.088451e-04,2.161875e+02
-8.086851e-04,2.143125e+02
-8.085251e-04,2.144375e+02
-8.083651e-04,2.138125e+02
-8.082051e-04,2.148125e+02
-8.080451e-04,2.138125e+02
-8.078851e-04,2.158750e+02
-8.077251e-04,2.154375e+02
-8.075651e-04,2.148125e+02
-8.074051e-04,2.171875e+02
-8.072451e-04,2.148125e+02
-8.070851e-04,2.164375e+02
-8.069251e-04,2.151875e+02
-8.067651e-04,2.145625e+02
-8.066051e-04,2.169375e+02
-8.064451e-04,2.133125e+02
-8.062851e-04,2.155625e+02
-8.061251e-04,2.160625e+02
-8.059651e-04,2.146875e+02
-8.058051e-04,2.148438e+02
-8.056451e-04,2.177813e+02
-8.054851e-04,2.155625e+02
-8.053251e-04,2.148125e+02
-8.051651e-04,2.156875e+02
-8.050051e-04,2.146875e+02
-8.048451e-04,2.164375e+02
-8.046851e-04,2.168125e+02
-8.045251e-04,2.130625e+02
-8.043651e-04,2.143125e+02
-8.042051e-04,2.169688e+02
-8.040451e-04,2.141875e+02
-8.038851e-04,2.151875e+02
-8.037251e-04,2.144375e+02
-8.035651e-04,2.153125e+02
-8.034051e-04,2.158125e+02
-8.032451e-04,2.122188e+02
-8.030851e-04,2.179375e+02
-8.029251e-04,2.166875e+02
-8.027651e-04,2.163125e+02
-8.026051e-04,2.156875e+02
-8.024451e-04,2.156875e+02
-8.022851e-04,2.123125e+02
-8.021251e-04,2.159375e+02
-8.019651e-04,2.149375e+02
-8.018051e-04,2.158125e+02
