ToyDataset2/tek ch3 tbx 6 wLbx current.csv

Model,MSO54
Waveform Type,ANALOG
Horizontal Units,s
Sample Interval,1.600000e-07
Record Length,81250
Zero Index,5745.281986
Vertical Units,A

TIME,CH3
-9.192451e-04,-8.984375e-01
-9.190851e-04,-1.210938e+00
-9.189251e-04,5.312500e-01
-9.187651e-04,-1.437500e+00
-9.186051e-04,1.562500e-02
-9.184451e-04,-9.843750e-01
-9.182851e-04,-5.937500e-01
-9.181251e-04,-1.250000e-01
-9.179651e-04,4.609375e-01
-9.178051e-04,1.562500e-01
-9.176451e-04,-1.484375e-01
-9.174851e-04,2.187500e-01
-9.173251e-04,1.875000e-01
-9.171651e-04,-7.812500e-02
-9.170051e-04,-2.000000e+00
-9.168451e-04,1.117188e+00
-9.166851e-04,-1.523438e+00
-9.165251e-04,-6.796875e-01
-9.163651e-04,-1.523438e+00
-9.162051e-04,1.562500e-01
-9.160451e-04,-1.867188e+00
-9.158851e-04,7.812500e-03
-9.157251e-04,-1.476562e+00
-9.155651e-04,-1.093750e-01
-9.154051e-04,6.796875e-01
-9.152451e-04,8.828125e-01
-9.150851e-04,6.562500e-01
-9.149251e-04,-1.429688e+00
-9.147651e-04,-2.203125e+00
-9.146051e-04,3.750000e-01
-9.144451e-04,-1.039062e+00
-9.142851e-04,4.531250e-01
-9.141251e-04,1.296875e+00
-9.139651e-04,-6.484375e-01
-9.138051e-04,2.578125e-01
-9.136451e-04,-1.953125e-01
-9.134851e-04,-1.359375e+00
-9.133251e-04,1.203125e+00
-9.131651e-04,-8.593750e-01
-9.130051e-04,-1.648438e+00
-9.128451e-04,-2.421875e-01
-9.126851e-04,-1.156250e+00
-9.125251e-04,-2.421875e+00
-9.123651e-04,-9.765625e-01
-9.122051e-04,2.578125e-01
-9.120451e-04,1.757812e+00
-9.118851e-04,5.000000e-01
-9.117251e-04,-7.500000e-01
-9.115651e-04,-2.343750e-01
-9.114051e-04,-1.625000e+00
-9.112451e-04,-1.015625e-01
-9.110851e-04,-1.171875e-01
-9.109251e-04,1.132812e+00
-9.107651e-04,1.953125e-01
-9.106051e-04,-6.875000e-01
-9.104451e-04,-7.812500e-02
-9.102851e-04,-1.554688e+00
-9.101251e-04,1.265625e+00
-9.099651e-04,6.562500e-01
-9.098051e-04,-1.343750e+00
-9.096451e-04,-1.265625e+00
-9.094851e-04,-4.140625e-01
-9.093251e-04,-3.984375e-01
-9.091651e-04,1.015625e-01
-9.090051e-04,-9.375000e-01
-9.088451e-04,4.062500e-01
-9.086851e-04,-1.492188e+00
-9.085251e-04,-6.250000e-02
-9.083651e-04,2.578125e-01
-9.082051e-04,-2.500000e-01
-9.080451e-04,-1.250000e-01
-9.078851e-04,-1.578125e+00
-9.077251e-04,-1.523438e+00
-9.075651e-04,2.343750e-01
-9.074051e-04,5.312500e-01
-9.072451e-04,1.875000e-01
-9.070851e-04,1.718750e-01
-9.069251e-04,2.343750e-02
-9.067651e-04,-1.406250e-01
-9.066051e-04,2.484375e+00
-9.064451e-04,1.414062e+00
-9.062851e-04,-1.718750e-01
-9.061251e-04,1.796875e+00
-9.059651e-04,-3.671875e-01
-9.058051e-04,-3.125000e-01
-9.056451e-04,8.281250e-01
-9.054851e-04,-4.375000e-01
-9.053251e-04,1.562500e-01
-9.051651e-04,-1.015625e-01
-9.050051e-04,-1.367188e+00
-9.048451e-04,7.031250e-02
-9.046851e-04,-9.765625e-01
-9.045251e-04,2.656250e-01
-9.043651e-04,-1.039062e+00
-9.042051e-04,1.281250e+00
-9.040451e-04,-1.984375e+00
-9.038851e-04,2.078125e+00
-9.037251e-04,-7.890625e-01
-9.035651e-04,3.125000e-02
-9.034051e-04,7.031250e-01
-9.032451e-04,1.031250e+00
-9.030851e-04,1.109375e+00
-9.029251e-04,2.812500e-01
-9.027651e-04,-4.843750e-01
-9.026051e-04,1.820312e+00
-9.024451e-04,-5.078125e-01
-9.022851e-04,-2.218750e+00
-9.021251e-04,1.640625e-01
-9.019651e-04,-1.632812e+00
-9.018051e-04,-3.984375e-01
-9.016451e-04,-3.906250e-01
-9.014851e-04,-1.312500e+00
-9.013251e-04,-3.281250e-01
-9.011651e-04,-5.546875e-01
-9.010051e-04,-4.531250e-01
-9.008451e-04,-5.546875e-01
-9.006851e-04,-4.218750e-01
-9.005251e-04,-4.453125e-01
-9.003651e-04,-1.562500e-01
-9.002051e-04,1.640625e-01
-9.000451e-04,1.046875e+00
-8.998851e-04,-1.406250e+00
-8.997251e-04,-9.687500e-01
-8.995651e-04,-3.046875e-01
-8.994051e-04,-1.218750e+00
-8.992451e-04,-1.500000e+00
-8.990851e-04,1.562500e-02
-8.989251e-04,-5.390625e-01
-8.987651e-04,-1.273438e+00
-8.986051e-04,1.875000e-01
-8.984451e-04,5.625000e-01
-8.982851e-04,-4.296875e-01
-8.981251e-04,9.687500e-01
-8.979651e-04,1.250000e-01
-8.978051e-04,-1.203125e+00
-8.976451e-04,-4.609375e-01
-8.974851e-04,6.328125e-01
-8.973251e-04,4.375000e-01
-8.971651e-04,1.640625e-01
-8.970051e-04,1.687500e+00
-8.968451e-04,3.593750e-01
-8.966851e-04,-2.078125e+00
-8.965251e-04,4.765625e-01
-8.963651e-04,-7.031250e-02
-8.962051e-04,-3.671875e-01
-8.960451e-04,-1.406250e+00
-8.958851e-04,-6.484375e-01
-8.957251e-04,-1.335938e+00
-8.955651e-04,8.671875e-01
-8.954051e-04,-2.812500e-01
-8.952451e-04,-6.328125e-01
-8.950851e-04,-5.859375e-01
-8.949251e-04,1.562500e-01
-8.947651e-04,9.140625e-01
-8.946051e-04,-6.250000e-01
-8.944451e-04,4.687500e-02
-8.942851e-04,6.875000e-01
-8.941251e-04,6.328125e-01
-8.939651e-04,1.375000e+00
-8.938051e-04,-5.234375e-01
-8.936451e-04,-1.562500e+00
-8.934851e-04,2.125000e+00
-8.933251e-04,4.531250e-01
-8.931651e-04,-1.156250e+00
-8.930051e-04,1.023438e+00
-8.928451e-04,-5.937500e-01
-8.926851e-04,4.531250e-01
-8.925251e-04,1.703125e+00
-8.923651e-04,-2.109375e-01
-8.922051e-04,8.593750e-02
-8.920451e-04,-7.812500e-01
-8.918851e-04,-1.093750e-01
-8.917251e-04,-2.171875e+00
-8.915651e-04,-5.546875e-01
-8.914051e-04,-3.515625e-01
-8.912451e-04,7.109375e-01
-8.910851e-04,-1.375000e+00
-8.909251e-04,-1.093750e-01
-8.907651e-04,4.921875e-01
-8.906051e-04,-9.843750e-01
-8.904451e-04,3.515625e-01
-8.902851e-04,1.460938e+00
-8.901251e-04,3.828125e-01
-8.899651e-04,3.046875e-01
-8.898051e-04,-4.453125e-01
-8.896451e-04,-3.828125e-01
-8.894851e-04,1.039062e+00
-8.893251e-04,1.226562e+00
-8.891651e-04,-3.046875e-01
-8.890051e-04,5.546875e-01
-8.888451e-04,-1.640625e-01
-8.886851e-04,6.250000e-01
-8.885251e-04,1.382812e+00
-8.883651e-04,-2.859375e+00
-8.882051e-04,-1.460938e+00
-8.880451e-04,-4.921875e-01
-8.878851e-04,7.890625e-01
-8.877251e-04,-4.453125e-01
-8.875651e-04,4.609375e-01
-8.874051e-04,9.843750e-01
-8.872451e-04,7.812500e-03
-8.870851e-04,-6.171875e-01
-8.869251e-04,-8.750000e-01
-8.867651e-04,4.609375e-01
-8.866051e-04,-5.625000e-01
-8.864451e-04,-1.593750e+00
-8.862851e-04,1.093750e-01
-8.861251e-04,-1.585938e+00
-8.859651e-04,1.023438e+00
-8.858051e-04,7.734375e-01
-8.856451e-04,-3.046875e-01
-8.854851e-04,8.203125e-01
-8.853251e-04,1.250000e-01
-8.851651e-04,8.828125e-01
-8.850051e-04,-4.843750e-01
-8.848451e-04,1.382812e+00
-8.846851e-04,1.210938e+00
-8.845251e-04,-4.531250e-01
-8.843651e-04,-7.656250e-01
-8.842051e-04,-4.140625e-01
-8.840451e-04,5.859375e-01
-8.838851e-04,-1.148438e+00
-8.837251e-04,1.265625e+00
-8.835651e-04,-1.000000e+00
-8.834051e-04,1.562500e+00
-8.832451e-04,1.406250e-01
-8.830851e-04,-4.687500e-02
-8.829251e-04,2.265625e-01
-8.827651e-04,-1.640625e+00
-8.826051e-04,1.210938e+00
-8.824451e-04,-7.265625e-01
-8.822851e-04,3.125000e-01
-8.821251e-04,2.578125e-01
-8.819651e-04,-3.671875e-01
-8.818051e-04,-1.093750e-01
-8.816451e-04,1.265625e+00
-8.814851e-04,5.546875e-01
-8.813251e-04,-2.578125e-01
-8.811651e-04,-8.281250e-01
-8.810051e-04,2.968750e-01
-8.808451e-04,-1.851562e+00
-8.806851e-04,-1.890625e+00
-8.805251e-04,4.765625e-01
-8.803651e-04,-1.726562e+00
-8.802051e-04,-7.734375e-01
-8.800451e-04,1.062500e+00
-8.798851e-04,1.562500e-02
-8.797251e-04,-4.687500e-02
-8.795651e-04,6.562500e-01
-8.794051e-04,-2.265625e-01
-8.792451e-04,-2.968750e-01
-8.790851e-04,-2.414062e+00
-8.789251e-04,-6.406250e-01
-8.787651e-04,-4.921875e-01
-8.786051e-04,-1.726562e+00
-8.784451e-04,-3.359375e-01
-8.782851e-04,-6.406250e-01
-8.781251e-04,-8.750000e-01
-8.779651e-04,-1.328125e-01
-8.778051e-04,2.343750e-02
-8.776451e-04,-1.343750e+00
-8.774851e-04,-3.515625e-01
-8.773251e-04,-6.796875e-01
-8.771651e-04,-1.117188e+00
-8.770051e-04,5.078125e-01
-8.768451e-04,2.812500e-01
-8.766851e-04,-7.265625e-01
-8.765251e-04,3.593750e-01
-8.763651e-04,-1.351562e+00
-8.762051e-04,1.468750e+00
-8.760451e-04,3.171875e+00
-8.758851e-04,1.070312e+00
-8.757251e-04,4.609375e-01
-8.755651e-04,4.765625e-01
-8.754051e-04,4.765625e-01
-8.752451e-04,-1.203125e+00
-8.750851e-04,-1.218750e+00
-8.749251e-04,9.453125e-01
-8.747651e-04,-3.828125e-01
-8.746051e-04,-1.375000e+00
-8.744451e-04,3.046875e-01
-8.742851e-04,-5.390625e-01
-8.741251e-04,2.968750e-01
-8.739651e-04,-7.265625e-01
-8.738051e-04,-6.718750e-01
-8.736451e-04,8.593750e-02
-8.734851e-04,-1.156250e+00
-8.733251e-04,-7.578125e-01
-8.731651e-04,1.117188e+00
-8.730051e-04,-4.140625e-01
-8.728451e-04,-1.640625e+00
-8.726851e-04,-4.218750e-01
-8.725251e-04,-4.687500e-02
-8.723651e-04,4.531250e-01
-8.722051e-04,-6.015625e-01
-8.720451e-04,1.187500e+00
-8.718851e-04,-8.671875e-01
-8.717251e-04,-1.585938e+00
-8.715651e-04,-3.515625e-01
-8.714051e-04,-3.593750e-01
-8.712451e-04,4.687500e-01
-8.710851e-04,2.187500e-01
-8.709251e-04,4.296875e-01
-8.707651e-04,-1.617188e+00
-8.706051e-04,2.578125e-01
-8.704451e-04,-1.250000e-01
-8.702851e-04,-7.265625e-01
-8.701251e-04,-7.031250e-02
-8.699651e-04,-3.046875e-01
-8.698051e-04,-9.140625e-01
-8.696451e-04,1.718750e-01
-8.694851e-04,-1.625000e+00
-8.693251e-04,1.554688e+00
-8.691651e-04,-9.453125e-01
-8.690051e-04,7.812500e-03
-8.688451e-04,-5.625000e-01
-8.686851e-04,-1.546875e+00
-8.685251e-04,3.906250e-02
-8.683651e-04,-5.000000e-01
-8.682051e-04,6.640625e-01
-8.680451e-04,-1.718750e-01
-8.678851e-04,-6.796875e-01
-8.677251e-04,1.210938e+00
-8.675651e-04,-3.437500e-01
-8.674051e-04,2.500000e+00
-8.672451e-04,2.187500e-01
-8.670851e-04,1.265625e+00
-8.669251e-04,2.656250e-01
-8.667651e-04,-1.015625e-01
-8.666051e-04,-3.906250e-02
-8.664451e-04,-6.171875e-01
-8.662851e-04,-1.179688e+00
-8.661251e-04,9.609375e-01
-8.659651e-04,1.640625e-01
-8.658051e-04,-2.523438e+00
-8.656451e-04,3.437500e-01
-8.654851e-04,3.125000e-01
-8.653251e-04,-4.531250e-01
-8.651651e-04,-7.656250e-01
-8.650051e-04,-2.812500e-01
-8.648451e-04,2.656250e-01
-8.646851e-04,-6.093750e-01
-8.645251e-04,-4.843750e-01
-8.643651e-04,1.328125e-01
-8.642051e-04,2.125000e+00
-8.640451e-04,-3.281250e-01
-8.638851e-04,-1.093750e-01
-8.637251e-04,-3.671875e-01
-8.635651e-04,-4.140625e-01
-8.634051e-04,-1.664062e+00
-8.632451e-04,-1.679688e+00
-8.630851e-04,-6.328125e-01
-8.629251e-04,7.812500e-03
-8.627651e-04,-7.343750e-01
-8.626051e-04,-1.148438e+00
-8.624451e-04,-6.796875e-01
-8.622851e-04,-1.601562e+00
-8.621251e-04,3.671875e-01
-8.619651e-04,-1.562500e-01
-8.618051e-04,-1.117188e+00
-8.616451e-04,1.578125e+00
-8.614851e-04,-1.328125e-01
-8.613251e-04,3.906250e-01
-8.611651e-04,-5.781250e-01
-8.610051e-04,3.359375e-01
-8.608451e-04,-2.812500e-01
-8.606851e-04,1.007812e+00
-8.605251e-04,-4.687500e-02
-8.603651e-04,-7.500000e-01
-8.602051e-04,-9.687500e-01
-8.600451e-04,4.687500e-02
-8.598851e-04,1.062500e+00
-8.597251e-04,-6.171875e-01
-8.595651e-04,1.328125e-01
-8.594051e-04,-2.968750e-01
-8.592451e-04,-9.375000e-01
-8.590851e-04,6.093750e-01
-8.589251e-04,3.750000e-01
-8.587651e-04,8.046875e-01
-8.586051e-04,-2.812500e-01
-8.584451e-04,-1.101562e+00
-8.582851e-04,-9.921875e-01
-8.581251e-04,-9.921875e-01
-8.579651e-04,8.593750e-01
-8.578051e-04,3.281250e-01
-8.576451e-04,-1.726562e+00
-8.574851e-04,2.421875e-01
-8.573251e-04,-1.937500e+00
-8.571651e-04,-7.031250e-01
-8.570051e-04,7.656250e-01
-8.568451e-04,-5.781250e-01
-8.566851e-04,-8.984375e-01
-8.565251e-04,-1.203125e+00
-8.563651e-04,1.851562e+00
-8.562051e-04,-2.890625e-01
-8.560451e-04,-7.890625e-01
-8.558851e-04,3.671875e-01
-8.557251e-04,1.484375e-01
-8.555651e-04,-1.531250e+00
-8.554051e-04,1.617188e+00
-8.552451e-04,3.015625e+00
-8.550851e-04,1.093750e-01
-8.549251e-04,3.671875e-01
-8.547651e-04,7.890625e-01
-8.546051e-04,-4.218750e-01
-8.544451e-04,8.593750e-02
-8.542851e-04,8.437500e-01
-8.541251e-04,-9.375000e-01
-8.539651e-04,6.328125e-01
-8.538051e-04,7.187500e-01
-8.536451e-04,-1.031250e+00
-8.534851e-04,-3.125000e-01
-8.533251e-04,7.656250e-01
-8.531651e-04,-1.179688e+00
-8.530051e-04,1.562500e-02
-8.528451e-04,-9.375000e-02
-8.526851e-04,4.375000e-01
-8.525251e-04,-1.046875e+00
-8.523651e-04,1.296875e+00
-8.522051e-04,-8.515625e-01
-8.520451e-04,1.789062e+00
-8.518851e-04,6.171875e-01
-8.517251e-04,7.812500e-03
-8.515651e-04,-5.625000e-01
-8.514051e-04,-1.156250e+00
-8.512451e-04,3.046875e-01
-8.510851e-04,-1.406250e+00
-8.509251e-04,-4.765625e-01
-8.507651e-04,8.750000e-01
-8.506051e-04,-1.078125e+00
-8.504451e-04,-7.265625e-01
-8.502851e-04,1.460938e+00
-8.501251e-04,-2.187500e-01
-8.499651e-04,5.312500e-01
-8.498051e-04,1.562500e-01
-8.496451e-04,-1.453125e+00
-8.494851e-04,-1.421875e+00
-8.493251e-04,-1.906250e+00
-8.491651e-04,-8.750000e-01
-8.490051e-04,9.687500e-01
-8.488451e-04,-4.140625e-01
-8.486851e-04,4.140625e-01
-8.485251e-04,6.328125e-01
-8.483651e-04,-1.054688e+00
-8.482051e-04,-8.906250e-01
-8.480451e-04,-6.406250e-01
-8.478851e-04,2.210938e+00
-8.477251e-04,-1.328125e+00
-8.475651e-04,-1.875000e-01
-8.474051e-04,9.062500e-01
-8.472451e-04,1.242188e+00
-8.470851e-04,-4.921875e-01
-8.469251e-04,-1.484375e-01
-8.467651e-04,1.328125e-01
-8.466051e-04,7.265625e-01
-8.464451e-04,1.757812e+00
-8.462851e-04,3.828125e-01
-8.461251e-04,-4.375000e-01
-8.459651e-04,8.984375e-01
-8.458051e-04,-6.015625e-01
-8.456451e-04,-2.734375e-01
-8.454851e-04,-1.210938e+00
-8.453251e-04,1.015625e-01
-8.451651e-04,4.531250e-01
-8.450051e-04,1.390625e+00
-8.448451e-04,1.234375e+00
-8.446851e-04,2.265625e-01
-8.445251e-04,8.203125e-01
-8.443651e-04,2.656250e-01
-8.442051e-04,-6.250000e-02
-8.440451e-04,4.375000e-01
-8.438851e-04,-3.359375e-01
-8.437251e-04,3.125000e-01
-8.435651e-04,-1.382812e+00
-8.434051e-04,3.671875e-01
-8.432451e-04,-1.507812e+00
-8.430851e-04,8.359375e-01
-8.429251e-04,1.539062e+00
-8.427651e-04,4.218750e-01
-8.426051e-04,-1.007812e+00
-8.424451e-04,7.812500e-01
-8.422851e-04,6.875000e-01
-8.421251e-04,-6.250000e-02
-8.419651e-04,4.375000e-01
-8.418051e-04,-5.234375e-01
-8.416451e-04,-5.078125e-01
-8.414851e-04,4.140625e-01
-8.413251e-04,3.750000e-01
-8.411651e-04,-4.062500e-01
-8.410051e-04,-7.578125e-01
-8.408451e-04,3.906250e-01
-8.406851e-04,-1.875000e-01
-8.405251e-04,-8.515625e-01
-8.403651e-04,9.765625e-01
-8.402051e-04,2.265625e-01
-8.400451e-04,1.484375e-01
-8.398851e-04,8.828125e-01
-8.397251e-04,8.437500e-01
-8.395651e-04,2.187500e-01
-8.394051e-04,-4.453125e-01
-8.392451e-04,-1.140625e+00
-8.390851e-04,2.578125e-01
-8.389251e-04,6.406250e-01
-8.387651e-04,4.687500e-01
-8.386051e-04,-1.406250e-01
-8.384451e-04,-7.500000e-01
-8.382851e-04,-8.906250e-01
-8.381251e-04,-1.179688e+00
-8.379651e-04,-8.750000e-01
-8.378051e-04,-2.828125e+00
-8.376451e-04,-5.312500e-01
-8.374851e-04,-1.562500e-01
-8.373251e-04,-4.218750e-01
-8.371651e-04,-5.078125e-01
-8.370051e-04,6.250000e-02
-8.368451e-04,-2.867188e+00
-8.366851e-04,-3.125000e-02
-8.365251e-04,-8.750000e-01
-8.363651e-04,-4.375000e-01
-8.362051e-04,-1.406250e+00
-8.360451e-04,1.648438e+00
-8.358851e-04,-1.718750e-01
-8.357251e-04,-4.218750e-01
-8.355651e-04,2.812500e-01
-8.354051e-04,-2.640625e+00
-8.352451e-04,5.312500e-01
-8.350851e-04,8.281250e-01
-8.349251e-04,1.476562e+00
-8.347651e-04,1.546875e+00
-8.346051e-04,-7.812500e-02
-8.344451e-04,-7.265625e-01
-8.342851e-04,-2.109375e+00
-8.341251e-04,-1.000000e+00
-8.339651e-04,4.609375e-01
-8.338051e-04,2.890625e-01
-8.336451e-04,-2.039062e+00
-8.334851e-04,-2.718750e+00
-8.333251e-04,-1.335938e+00
-8.331651e-04,-4.609375e-01
-8.330051e-04,-8.828125e-01
-8.328451e-04,-1.242188e+00
-8.326851e-04,-4.296875e-01
-8.325251e-04,4.687500e-01
-8.323651e-04,-7.187500e-01
-8.322051e-04,6.093750e-01
-8.320451e-04,6.406250e-01
-8.318851e-04,3.515625e-01
-8.317251e-04,-1.718750e-01
-8.315651e-04,8.046875e-01
-8.314051e-04,4.609375e-01
-8.312451e-04,-2.734375e-01
-8.310851e-04,-9.921875e-01
-8.309251e-04,-8.359375e-01
-8.307651e-04,-5.703125e-01
-8.306051e-04,-4.062500e-01
-8.304451e-04,1.710938e+00
-8.302851e-04,-8.437500e-01
-8.301251e-04,-4.140625e-01
-8.299651e-04,1.953125e-01
-8.298051e-04,-1.171875e+00
-8.296451e-04,1.562500e-02
-8.294851e-04,-3.906250e-01
-8.293251e-04,-8.125000e-01
-8.291651e-04,-1.250000e+00
-8.290051e-04,-4.140625e-01
-8.288451e-04,1.640625e+00
-8.286851e-04,-5.078125e-01
-8.285251e-04,8.828125e-01
-8.283651e-04,9.531250e-01
-8.282051e-04,4.531250e-01
-8.280451e-04,1.140625e+00
-8.278851e-04,-1.914062e+00
-8.277251e-04,-5.078125e-01
-8.275651e-04,-6.250000e-02
-8.274051e-04,7.812500e-01
-8.272451e-04,-4.687500e-02
-8.270851e-04,-8.281250e-01
-8.269251e-04,-2.453125e+00
-8.267651e-04,-1.328125e-01
-8.266051e-04,-1.250000e-01
-8.264451e-04,-8.515625e-01
-8.262851e-04,8.750000e-01
-8.261251e-04,-5.781250e-01
-8.259651e-04,-1.875000e-01
-8.258051e-04,6.562500e-01
-8.256451e-04,2.421875e-01
-8.254851e-04,4.140625e-01
-8.253251e-04,6.562500e-01
-8.251651e-04,1.562500e+00
-8.250051e-04,2.343750e-01
-8.248451e-04,1.757812e+00
-8.246851e-04,2.656250e-01
-8.245251e-04,-2.500000e-01
-8.243651e-04,-8.046875e-01
-8.242051e-04,1.031250e+00
-8.240451e-04,1.218750e+00
-8.238851e-04,-1.132812e+00
-8.237251e-04,3.828125e-01
-8.235651e-04,-1.953125e+00
-8.234051e-04,2.421875e-01
-8.232451e-04,1.320312e+00
-8.230851e-04,-9.687500e-01
-8.229251e-04,3.515625e-01
-8.227651e-04,-2.421875e-01
-8.226051e-04,3.125000e-02
-8.224451e-04,1.656250e+00
-8.222851e-04,-4.218750e-01
-8.221251e-04,2.484375e+00
-8.219651e-04,-1.015625e+00
-8.218051e-04,-4.062500e-01
-8.216451e-04,1.875000e-01
-8.214851e-04,-1.335938e+00
-8.213251e-04,8.593750e-02
-8.211651e-04,2.265625e-01
-8.210051e-04,-1.265625e+00
-8.208451e-04,-1.054688e+00
-8.206851e-04,1.250000e-01
-8.205251e-04,7.812500e-01
-8.203651e-04,5.390625e-01
-8.202051e-04,-5.234375e-01
-8.200451e-04,-6.406250e-01
-8.198851e-04,-6.406250e-01
-8.197251e-04,1.328125e+00
-8.195651e-04,-2.500000e-01
-8.194051e-04,-1.148438e+00
-8.192451e-04,3.906250e-01
-8.190851e-04,7.031250e-02
-8.189251e-04,-2.218750e+00
-8.187651e-04,-2.109375e-01
-8.186051e-04,7.968750e-01
-8.184451e-04,-2.578125e-01
-8.182851e-04,-9.140625e-01
-8.181251e-04,-1.617188e+00
-8.179651e-04,-1.804688e+00
-8.178051e-04,-7.812500e-01
-8.176451e-04,3.046875e-01
-8.174851e-04,-1.875000e-01
-8.173251e-04,-3.984375e-01
-8.171651e-04,-3.515625e-01
-8.170051e-04,-5.937500e-01
-8.168451e-04,-1.250000e-01
-8.166851e-04,-1.070312e+00
-8.165251e-04,-1.132812e+00
-8.163651e-04,-6.640625e-01
-8.162051e-04,6.171875e-01
-8.160451e-04,-1.062500e+00
-8.158851e-04,-1.664062e+00
-8.157251e-04,-1.898438e+00
-8.155651e-04,-2.734375e-01
-8.154051e-04,-1.093750e+00
-8.152451e-04,-4.843750e-01
-8.150851e-04,-5.078125e-01
-8.149251e-04,-2.734375e-01
-8.147651e-04,3.984375e-01
-8.146051e-04,6.640625e-01
-8.144451e-04,-1.406250e-01
-8.142851e-04,-6.250000e-02
-8.141251e-04,2.031250e-01
-8.139651e-04,-5.703125e-01
-8.138051e-04,9.218750e-01
-8.136451e-04,-2.812500e-01
-8.134851e-04,-8.359375e-01
-8.133251e-04,-3.515625e-01
-8.131651e-04,-7.734375e-01
-8.130051e-04,9.375000e-02
-8.128451e-04,6.484375e-01
-8.126851e-04,3.984375e-01
-8.125251e-04,-1.156250e+00
-8.123651e-04,-1.500000e+00
-8.122051e-04,5.390625e-01
-8.120451e-04,1.640625e-01
-8.118851e-04,-6.796875e-01
-8.117251e-04,-2.265625e-01
-8.115651e-04,1.953125e-01
-8.114051e-04,-8.203125e-01
-8.112451e-04,4.062500e-01
-8.110851e-04,-2.812500e-01
-8.109251e-04,-1.476562e+00
-8.107651e-04,-2.039062e+00
-8.106051e-04,3.437500e-01
-8.104451e-04,-1.796875e-01
-8.102851e-04,1.421875e+00
-8.101251e-04,-4.453125e-01
-8.099651e-04,-2.453125e+00
-8.098051e-04,6.406250e-01
-8.096451e-04,5.312500e-01
-8.094851e-04,-2.421875e-01
-8.093251e-04,-8.906250e-01
-8.091651e-04,-4.765625e-01
-8.090051e-04,-1.015625e-01
-8.088451e-04,-8.750000e-01
-8.086851e-04,-2.500000e-01
-8.085251e-04,1.109375e+00
-8.083651e-04,-1.484375e+00
-8.082051e-04,5.625000e-01
-8.080451e-04,8.828125e-01
-8.078851e-04,-1.328125e-01
-8.077251e-04,-2.484375e+00
-8.075651e-04,1.171875e-01
-8.074051e-04,1.953125e-01
-8.072451e-04,5.625000e-01
-8.070851e-04,-3.437500e-01
-8.069251e-04,2.031250e-01
-8.067651e-04,-4.453125e-01
-8.066051e-04,1.351562e+00
-8.064451e-04,-1.726562e+00
-8.062851e-04,6.093750e-01
-8.061251e-04,-1.843750e+00
-8.059651e-04,3.906250e-02
-8.058051e-04,2.343750e-02
-8.056451e-04,7.031250e-02
-8.054851e-04,1.593750e+00
-8.053251e-04,-7.812500e-03
-8.051651e-04,2.187500e-01
-8.050051e-04,1.265625e+00
-8.048451e-04,-1.281250e+00
-8.046851e-04,-1.328125e-01
-8.045251e-04,5.000000e-01
-8.043651e-04,2.367188e+00
-8.042051e-04,-3.984375e-01
